MP01 Submission – STA 9750 Submission Material
…
# A tibble: 1 × 4
  first_name last_name   fiscal_year ot_hours
  <chr>      <chr>             <dbl>    <dbl>
1 James      Internicola        2022    3693.

In this section, we calculate which agency has the highest average total annual payroll (base and overtime pay per employee).

# A tibble: 1 × 2
  agency_name                    avg_total_pay
  <chr>                                  <dbl>
1 Office Of Collective Bargainin    190936482.

In this section, we calculate many employees are in each agency and then each fiscal_year, keep only the agency with the maximum employee count.

# A tibble: 1,705 × 3
   fiscal_year agency_name                    num_employees
         <dbl> <chr>                                  <int>
 1        2014 Dept Of Ed Pedagogical                100589
 2        2014 Dept Of Ed Per Session Teacher         76334
 3        2014 Police Department                      55619
 4        2014 Board Of Election Poll Workers         33241
 5        2014 Dept Of Ed Para Professionals          27556
 6        2014 Dept Of Ed Hrly Support Staff          23056
 7        2014 Fire Department                        16555
 8        2014 Dept Of Parks & Recreation             15120
 9        2014 Hra/Dept Of Social Services            14765
10        2014 Department Of Education Admin          13905
# ℹ 1,695 more rows
…
For every other employee in that same year who earned more than the mayor, compute how much would be “saved” if their pay were capped at the mayor’s salary.

Warning in left_join(payroll, mayor_pay, by = "fiscal_year"): Detected an unexpected many-to-many relationship between `x` and `y`.
ℹ Row 17197 of `x` matches multiple rows in `y`.
ℹ Row 10 of `y` matches multiple rows in `x`.
ℹ If a many-to-many relationship is expected, set `relationship =
  "many-to-many"` to silence this warning.

# A tibble: 6,838,619 × 21
   fiscal_year payroll_number agency_name          last_name first_name mid_init
         <dbl>          <dbl> <chr>                <chr>     <chr>      <chr>   
 1        2024             67 Admin For Children'… Faye Fall Sokhna     M       
 2        2024             67 Admin For Children'… Kilgore   Orlantha   B       
 3        2024             67 Admin For Children'… Wisdom    Cherise    M       
 4        2024             67 Admin For Children'… Miller    Moya-Gaye  S       
 5        2024             67 Admin For Children'… Bradley   Yashika    M       
 6        2024             67 Admin For Children'… Maurino   Jennifer   L       
 7        2024             67 Admin For Children'… Kelly     Princess   O       
 8        2024             67 Admin For Children'… Ojo       Abiodun    <NA>    
 9        2024             67 Admin For Children'… Nelson    Cassandra  N       
10        2024             67 Admin For Children'… Adjaero   Alphonsus  A       
# ℹ 6,838,609 more rows
# ℹ 15 more variables: agency_start_date <dttm>, work_location_borough <chr>,
#   title_description <chr>, leave_status_as_of_june_30 <chr>,
#   base_salary <dbl>, pay_basis <chr>, regular_hours <dbl>,
#   regular_gross_paid <dbl>, ot_hours <dbl>, total_ot_paid <dbl>,
#   total_other_pay <dbl>, total_compensation <dbl>, mayor_total <dbl>,
#   capped_compensation <dbl>, savings <dbl>
…
